…
Result:

```
      n
  <int>
1    21
----------------------------------------- 
$`Boxed Set - Hardcover`
# A tibble: 1 x 3
  Book_title                                             Type                  Price
  <chr>                                                  <chr>                 <dbl>
1 The Art of Computer Programming, Volumes 1-3 Boxed Set Boxed Set - Hardcover  220.

$Hardcover
# A tibble: 16 x 3
   Book_title                                                        Type     Price
   <chr>                                                             <chr>    <dbl>
 1 Computer Systems: A Programmer's Perspective                      Hardcov~  103.
 2 Modern Operating Systems                                          Hardcov~  103.
 3 Structured Computer Organization                                  Hardcov~  104.
 4 Game Engine Gems 1                                                Hardcov~  106.
 5 Concepts, Techniques, and Models of Computer Programming          Hardcov~  108.
# ... with 11 more rows
…
